Project 1
…
##F: Standard Deviation of Total Residents by Specialty and Degree
ds_join %>% group_by(specialty.x, Degree) %>% 
 summarize(SD = sd(Count_degree)) %>% arrange(desc(SD)) 

## # A tibble: 160 x 3
## # Groups:   specialty.x [32]
##    specialty.x               Degree    SD
##    <chr>                     <chr>  <dbl>
##  1 Internal medicine         US.MD  2387.
##  2 Surgery                   US.MD  2120.
##  3 Internal medicine         IMG    2043.
##  4 Obstetrics and gynecology US.MD  1560.
##  5 Family medicine           US.MD  1466.
##  6 Psychiatry                US.MD  1319.
##  7 Emergency medicine        US.MD  1298.
##  8 Pediatrics                US.MD  1199.
##  9 Anesthesiology            US.MD  1160.
## 10 Family medicine           US.DO  1134.
## # … with 150 more rows
…
## # A tibble: 5 x 2
##   Degree Total.Degree
##   <chr>         <int>
## 1 UNKWN             1
## 2 CAN.MD          165
## 3 US.DO         21927
## 4 IMG           32686
## 5 US.MD         85612

##I: Count of Subspecialties by Specialty
ds_join %>% group_by(specialty.x) %>% 
  summarize(Count.Subs = n_distinct(subspecialty)) %>%
  arrange(desc( Count.Subs)) 

## # A tibble: 32 x 2
##    specialty.x                          Count.Subs
##    <chr>                                     <int>
##  1 Internal medicine                            21
##  2 Pediatrics                                   18
##  3 Pathologyanatomic and clinical               11
##  4 Anesthesiology                                9
##  5 Orthopaedic surgery                           9
##  6 Neurology                                     8
##  7 Radiology-diagnostic                          8
##  8 Emergency medicine                            7
##  9 Psychiatry                                    7
## 10 Physical medicine and rehabilitation          6
## # … with 22 more rows

##J: Subspecialties With the Fewest Residents
ds_join %>% select(Total.Residents.x, subspecialty, specialty.x) %>% group_by(subspecialty) %>%distinct() %>% arrange(Total.Residents.x)

## # A tibble: 155 x 3
## # Groups:   subspecialty [136]
##    Total.Residents.x subspecialty                      specialty.x              
##                <int> <chr>                             <chr>                    
##  1                 1 " Clinical informatics"           Anesthesiology           
##  2                 1 " Endovascular surgical neurorad… Neurological surgery     
##  3                 1 " Brain injury medicine"          Neurology                
##  4                 1 " Endovascular surgical neurorad… Neurology                
##  5                 1 " Chemical pathology"             Pathologyanatomic and cl…
##  6                 1 " Neuromuscular medicine"         Physical medicine and re…
##  7                 2 " Undersea and hyperbaric medici… Preventive medicine      
##  8                 4 " Medical toxicology"             Preventive medicine      
##  9                 5 " Clinical informatics"           Emergency medicine       
## 10                 5 " Ophthalmic plastic and reconst… Ophthalmology            
## # … with 145 more rows
…
clust_final<-clust_df%>%mutate(cluster=as.factor(ds_pam$clustering))

confmat<-clust_final%>%group_by(specialty.x)%>% count(cluster)%>%arrange(desc(n))%>%
  pivot_wider(names_from="cluster",values_from="n",values_fill = list('n'=0))
confmat

## # A tibble: 30 x 4
## # Groups:   specialty.x [30]
##    specialty.x                             `1`   `2`   `3`
##    <chr>                                 <int> <int> <int>
##  1 Allergy and immunology                    1     0     0
##  2 Anesthesiology                            0     1     0
##  3 Child neurology                           1     0     0
##  4 Dermatology                               1     0     0
##  5 Emergency medicine                        0     1     0
##  6 Family medicine                           0     1     0
##  7 Internal medicine                         0     0     1
##  8 Internal medicine/Pediatrics              1     0     0
##  9 Interventional radiology - integrated     1     0     0
## 10 Medical genetics and genomics             1     0     0
## # … with 20 more rows
…
